<?xml version="1.0" encoding="utf-8"?>
<!-- Generator: Adobe Illustrator 16.0.0, SVG Export Plug-In . SVG Version: 6.00 Build 0)  -->
<!DOCTYPE svg PUBLIC "-//W3C//DTD SVG 1.1//EN" "http://www.w3.org/Graphics/SVG/1.1/DTD/svg11.dtd">
<svg version="1.1" id="Layer_1" xmlns="http://www.w3.org/2000/svg" xmlns:xlink="http://www.w3.org/1999/xlink" x="0px" y="0px"
	 width="14.499px" height="14.521px" viewBox="0 0 14.499 14.521" enable-background="new 0 0 14.499 14.521" xml:space="preserve">
<line fill="none" stroke="#0CA3D9" stroke-width="3" stroke-linecap="round" stroke-linejoin="round" stroke-miterlimit="10" x1="1.96" y1="12.668" x2="12.759" y2="1.869"/>
<line fill="none" stroke="#0CA3D9" stroke-width="3" stroke-linecap="round" stroke-linejoin="round" stroke-miterlimit="10" x1="1.96" y1="1.869" x2="12.759" y2="12.668"/>
</svg>
