<?xml version="1.0" encoding="utf-8"?>
<!-- Generator: Adobe Illustrator 16.0.0, SVG Export Plug-In . SVG Version: 6.00 Build 0)  -->
<!DOCTYPE svg PUBLIC "-//W3C//DTD SVG 1.1//EN" "http://www.w3.org/Graphics/SVG/1.1/DTD/svg11.dtd">
<svg version="1.1" id="Layer_1" xmlns="http://www.w3.org/2000/svg" xmlns:xlink="http://www.w3.org/1999/xlink" x="0px" y="0px"
	 width="189px" height="158px" viewBox="0 0 189 158" enable-background="new 0 0 189 158" xml:space="preserve">
<path fill="#007AC2" d="M149.769,15.81c-9.302,4.847-24.981,1.151-31.703-0.804l-1.44-3.782c0,0-23.775-11.243-60.624-2.395
	C16.943,18.198,5.836,37.494,5.836,37.494l30.539,80.157c0,0,14.556-16.91,51.955-25.9c29.278-7.012,48.262-3.98,55.286-2.27
	l1.304,3.383c0,0,26.7,5.783,31.961-7.014L149.769,15.81z"/>
<path fill="#FFFFFF" d="M99.016,65.134h-5.813l-0.86,4.954h-8.924l7.326-32.42h10.861l7.293,32.42h-8.928L99.016,65.134z
	 M96.2,44.752h-0.092l-1.99,13.301h3.948L96.2,44.752z"/>
<polygon fill="#FFFFFF" points="108.856,37.667 126.215,37.667 126.215,45.026 117.516,45.026 117.516,50.801 125.099,50.801 
	125.099,57.874 117.516,57.874 117.516,70.086 108.856,70.086 "/>
<path fill="#FFFFFF" d="M139.938,45.66c0-1.362-0.571-2.628-2.042-2.628c-1.283,0-1.988,1.131-1.988,2.449
	c0,6.439,12.903,3.133,12.903,14.706c0,7.527-3.334,10.528-11.33,10.528c-6.637,0-10.274-2.356-10.274-9.485v-0.868h8.392v1.503
	c0,1.587,0.662,2.863,2.174,2.863c1.595,0,2.124-1.465,2.124-2.863c0-2.09-0.734-2.538-1.854-3.213
	c-1.182-0.686-2.733-1.329-4.299-2.139c-4.682-2.459-6.244-4.225-6.244-9.039c0-4.497,1.305-6.955,3.304-8.446
	c1.479-1.086,3.675-1.981,7.051-1.981c8.751,0,10.232,4.538,10.232,9.923h-8.148V45.66z"/>
<path fill="#FFFFFF" d="M72.022,76.181c-5.733,0.515-15.432-4.955-24.148-13.631c-8.89-8.867-14.375-18.611-13.646-24.301
	c-0.012,0.012-0.04,0.035-0.061,0.057c-2.035,2.03-2.759,3.245-2.916,4.91c-0.34,2.86,1.183,7.085,4.127,11.754
	c-3.074,4.831-4.649,9.204-4.244,12.109c0.033,0.316,0.289,2.042,2.956,4.705c0.392,0.387,1.032,0.92,1.032,0.92
	c1.605,1.332,2.914,1.559,3.27,1.641c0.038,0,0.105,0.013,0.105,0.013h0.025h0.032c2.61,0.392,6.804-0.961,11.243-3.595
	c0.551,0.441,1.101,0.881,1.646,1.305c-0.071,0.041-0.231,0.15-0.231,0.15c-4.659,2.82-9.06,4.479-12.224,4.293h-0.004
	c0.807,0.793,1.627,1.445,2.356,1.918c0.294,0.229,0.638,0.412,1.015,0.557c0.403,0.176,0.738,0.258,1.015,0.258
	c2.896,0.434,7.28-1.104,12.145-4.156c4.851,3.053,9.216,4.623,12.131,4.209c0.331,0.049,0.803-0.084,1.357-0.371
	c0.201-0.084,0.404-0.196,0.595-0.319c0.849-0.526,1.818-1.302,2.781-2.249c0.079-0.092,0.157-0.175,0.232-0.238
	C72.36,76.139,72.15,76.16,72.022,76.181 M36.229,70.648l-0.004,0.232l-0.006,0.16c-0.383,0.004-0.74-0.016-1.072-0.066h-0.024
	l-0.021-0.014c0,0-0.063-0.004-0.11-0.012c-0.134-0.029-0.419-0.08-0.803-0.209v-0.063c-0.021-3.003,1.392-6.917,4.074-11.335
	l0.141-0.224c0.43,0.551,0.875,1.116,1.344,1.671C37.445,64.641,36.203,68.148,36.229,70.648 M45.883,67.607
	c-1.835,1.066-3.579,1.909-5.191,2.49l-0.401,0.148l0.149-0.408c0.574-1.602,1.43-3.339,2.499-5.17l0.109-0.176
	c0.457,0.479,0.933,0.979,1.426,1.47c0.528,0.524,1.055,1.035,1.597,1.536L45.883,67.607z"/>
<path fill="#FFFFFF" d="M75.684,55.001c2.98-4.718,4.523-8.98,4.185-11.857c-0.219-1.674-0.87-2.889-2.912-4.917
	c-0.067-0.059-0.128-0.115-0.185-0.176c0.021,0.176,0.057,0.351,0.072,0.464l0.016,0.087c0.523,5.711-4.973,15.372-13.681,24.038
	c-0.685,0.681-1.403,1.368-2.149,2.053l-0.038,0.035c-0.533-0.388-1.075-0.78-1.614-1.2c0.046-0.052,0.155-0.145,0.155-0.145
	c0.755-0.69,1.491-1.392,2.176-2.073c8.325-8.289,13.717-17.589,13.099-22.625c-0.004-0.03-0.004-0.059-0.004-0.09
	c-0.167-1.618-0.942-3.397-2.596-5.045l-0.185-0.191c-2.575-2.477-4.468-2.53-4.82-2.53c-2.885-0.259-7.046,1.25-11.658,4.129
	c-4.76-2.975-9.046-4.518-11.937-4.177c-0.3,0.043-2.237,0.212-4.94,2.901c-0.388,0.378-0.709,0.749-0.988,1.105
	c-1.606,1.98-1.517,3.518-1.517,3.518v0.009c-0.764,4.999,4.625,14.372,13.071,22.776c8.316,8.289,17.663,13.658,22.726,13.039
	c0.359-0.031,2.942-0.526,4.523-1.873c0.251-0.225,0.507-0.448,0.763-0.711c1.623-1.614,2.623-3.372,2.655-4.477
	C80.273,64.173,78.698,59.77,75.684,55.001 M68.042,45.525c-0.491-0.509-0.99-1.025-1.477-1.516
	c-0.494-0.493-0.989-0.977-1.486-1.442l0.151-0.087c1.832-1.063,3.566-1.888,5.176-2.474l0.26-0.104
	C70.103,41.625,69.201,43.525,68.042,45.525 M59.667,37.938l0.268-0.175c4.299-2.594,8.111-3.97,11.105-4.042
	c0.166,0.489,0.258,0.969,0.3,1.433c0,0.037,0.006,0.06,0.014,0.091c0.011,0.125,0.021,0.263,0.021,0.401
	c-2.526-0.029-6.101,1.245-10.055,3.59l-0.017,0.004c-0.554-0.446-1.103-0.88-1.657-1.298L59.667,37.938z M39.622,35.748
	c0,0-0.033,0.008-0.08,0.014c0.009-0.314,0.025-0.62,0.063-0.895v-0.006v-0.016c0,0,0.032-0.431,0.323-1.132
	c5.854,0.049,14.971,5.383,23.266,13.652c0.704,0.697,1.408,1.423,2.102,2.184l0.057,0.054c-0.389,0.542-0.786,1.073-1.207,1.609
	c-0.051-0.046-0.164-0.181-0.164-0.181c-0.704-0.748-1.409-1.499-2.134-2.211C53.788,40.788,44.852,35.535,39.622,35.748
	 M43.266,45.382l-0.197,0.196l-0.13-0.238c-1.061-1.815-1.899-3.542-2.491-5.139l-0.102-0.284c1.763,0.566,3.702,1.468,5.743,2.668
	l-0.166,0.152c-0.518,0.495-0.992,0.954-1.445,1.405C44.11,44.517,43.707,44.907,43.266,45.382 M47.124,51.051l-0.166,0.18
	c-0.423-0.538-0.832-1.077-1.219-1.612l0.06-0.049c0.694-0.756,1.398-1.493,2.107-2.192c0.674-0.681,1.399-1.368,2.133-2.042
	l0.105-0.101c0.541,0.393,1.073,0.786,1.612,1.207l-0.027,0.021l-0.191,0.175c-0.753,0.681-1.474,1.383-2.176,2.084
	C48.6,49.48,47.839,50.267,47.124,51.051 M56.072,59.945c0,0-0.264,0.222-0.511,0.417c-0.952-0.843-1.896-1.73-2.827-2.663
	c-0.238-0.229-0.47-0.476-0.704-0.718c-0.176-0.184-0.365-0.359-0.528-0.545c-0.401-0.407-0.81-0.845-1.208-1.29l-0.13-0.14
	l0.13-0.134c0.828-0.901,1.652-1.774,2.474-2.584c0.842-0.839,1.74-1.695,2.694-2.543l0.134-0.125l0.135,0.125
	c0.912,0.831,1.793,1.668,2.61,2.485c0.839,0.824,1.699,1.716,2.537,2.642l0.096,0.122c-0.867,0.961-1.774,1.92-2.728,2.857
	C57.56,58.55,56.83,59.25,56.072,59.945 M65.046,67.37l0.147-0.134c0.474-0.469,0.91-0.883,1.305-1.273
	c0.435-0.434,0.874-0.887,1.354-1.388l0.189-0.2l0.133,0.231c1.083,1.831,1.921,3.574,2.512,5.177l0.088,0.252
	C69.019,69.469,67.082,68.562,65.046,67.37 M76.437,70.523c-0.34,0.079-0.667,0.125-1.011,0.161
	c-0.146,0.021-0.293,0.015-0.436,0.021v-0.051c0-2.519-1.289-6.049-3.625-9.955l-0.032-0.037c0.458-0.557,0.898-1.094,1.311-1.649
	l0.028,0.041l0.165,0.279c2.619,4.273,4.007,8.087,4.063,11.063C76.733,70.453,76.563,70.508,76.437,70.523"/>
<rect x="83.836" y="104.453" fill="#FFFFFF" width="3.415" height="13.053"/>
<path fill="#FFFFFF" d="M88.576,107.627h3.208v1.218h0.03c0.425-0.97,1.257-1.466,2.398-1.466c1.449,0,2.59,0.561,2.59,2.684v7.442
	h-3.312v-6.515c0-0.814-0.218-1.164-0.801-1.164c-0.581,0-0.799,0.35-0.799,1.164v6.515h-3.315V107.627z"/>
<path fill="#FFFFFF" d="M97.504,107.627h1.1v-2.915h3.313v2.915h1.295v2.229h-1.295v4.68c0,0.58,0.25,0.775,0.778,0.775h0.517v2.194
	c-0.609,0.065-1.242,0.114-1.799,0.114c-2.023,0-2.809-0.342-2.809-2.504v-5.26h-1.1V107.627z"/>
<path fill="#FFFFFF" d="M108.735,111.342h-1.815v-0.445c0-1.042,0.228-1.514,0.9-1.514c0.693,0,0.915,0.472,0.915,1.514V111.342z
	 M111.819,113.135v-1.01c0-3.59-1.335-4.746-3.978-4.746c-2.981,0-4.228,1.424-4.228,5.199c0,3.752,1.028,5.186,4.228,5.186
	c2.733,0,3.854-1.342,3.894-3.721h-2.983c0,1.36-0.34,1.711-0.932,1.711c-0.457,0-0.9-0.267-0.9-1.332v-1.287H111.819z"/>
<path fill="#FFFFFF" d="M112.668,107.627h3.191v1.58h0.029c0.373-1.188,1.254-1.828,2.228-1.828h0.541v3.076
	c-0.294-0.064-0.552-0.084-0.831-0.084c-1.182,0-1.866,0.465-1.866,1.754v5.38h-3.292V107.627z"/>
<path fill="#FFFFFF" d="M123.979,111.504c0-0.803-0.084-1.277-0.217-1.607c-0.156-0.289-0.404-0.402-0.748-0.402
	c-0.755,0-0.981,0.652-0.981,3.082c0,2.424,0.227,3.074,0.981,3.074c0.612,0,0.965-0.391,0.965-1.629v-0.639h2.959
	c0,1.546-0.225,2.617-0.867,3.34c-0.654,0.723-1.678,1.041-3.057,1.041c-2.537,0-4.285-0.773-4.285-5.021
	c0-4.67,1.965-5.363,4.453-5.363c2.939,0,3.756,1.65,3.756,4.125H123.979z"/>
<path fill="#FFFFFF" d="M127.854,107.627h3.313v6.518c0,0.816,0.205,1.166,0.797,1.166c0.583,0,0.809-0.35,0.809-1.166v-6.518h3.305
	v9.878h-3.201v-1.218h-0.042c-0.402,0.982-1.253,1.477-2.38,1.477c-1.451,0-2.6-0.568-2.6-2.693V107.627z"/>
<rect x="137.443" y="104.453" fill="#FFFFFF" width="3.313" height="13.053"/>
<path fill="#FFFFFF" d="M141.504,107.627h1.096v-2.915h3.314v2.915h1.305v2.229h-1.305v4.68c0,0.58,0.256,0.775,0.797,0.775h0.508
	v2.194c-0.602,0.065-1.241,0.114-1.803,0.114c-2.031,0-2.816-0.342-2.816-2.504v-5.26h-1.096V107.627z"/>
<path fill="#FFFFFF" d="M147.923,107.627h3.306v6.518c0,0.816,0.218,1.166,0.817,1.166c0.56,0,0.783-0.35,0.783-1.166v-6.518h3.308
	v9.878h-3.199v-1.218h-0.022c-0.433,0.982-1.265,1.477-2.401,1.477c-1.449,0-2.591-0.568-2.591-2.693V107.627z"/>
<path fill="#FFFFFF" d="M157.379,107.627h3.199v1.58h0.043c0.373-1.188,1.262-1.828,2.217-1.828h0.537v3.076
	c-0.301-0.064-0.549-0.084-0.827-0.084c-1.181,0-1.843,0.465-1.843,1.754v5.38h-3.326V107.627z"/>
<path fill="#FFFFFF" d="M167.344,115.559c-0.487,0-0.818-0.414-0.818-1.084c0-0.66,0.164-1.043,0.684-1.28
	c0.486-0.226,0.951-0.194,1.139-0.453h0.031v1.188C168.379,115.012,168.088,115.559,167.344,115.559 M171.768,117.506
	c-0.271-0.517-0.313-1.217-0.313-2.123v-4.848c0-2.555-1.617-3.156-3.915-3.156c-1.522,0-3.821,0.484-3.821,3.303h2.877
	c0.012-1.031,0.322-1.299,0.944-1.299c0.558,0,0.839,0.317,0.839,0.906c0,0.598-0.26,0.905-0.976,1.061l-1.304,0.322
	c-2.111,0.492-2.766,1.348-2.766,3.184c0,1.691,0.788,2.908,2.766,2.908c0.984,0,1.873-0.494,2.248-1.371h0.031
	c0.051,0.404,0.092,0.762,0.194,1.113H171.768z"/>
<rect x="172.967" y="104.453" fill="#FFFFFF" width="3.305" height="13.053"/>
<path fill="#FFFFFF" d="M87.251,124.518h0.634c0.864,0,1.321,0.494,1.321,1.576c0,1.104-0.457,1.6-1.321,1.6h-0.634V124.518z
	 M83.836,135.104h3.415v-4.967h1.188c2.763,0,4.292-1.391,4.292-4.049c0-2.293-1.179-4.025-3.785-4.025h-5.11V135.104z"/>
<path fill="#FFFFFF" d="M93.389,125.238h3.207v1.559h0.041c0.373-1.188,1.254-1.816,2.215-1.816h0.537v3.072
	c-0.287-0.051-0.547-0.07-0.816-0.07c-1.189,0-1.854,0.453-1.854,1.74v5.381h-3.33V125.238z"/>
<path fill="#FFFFFF" d="M102.965,130.178c0-2.496,0.174-3.094,0.91-3.094c0.756,0,0.922,0.598,0.922,3.094
	c0,2.484-0.166,3.072-0.922,3.072C103.139,133.25,102.965,132.662,102.965,130.178 M108.102,130.178
	c0-2.844-0.344-5.198-4.227-5.198c-3.729,0-4.224,2.589-4.224,5.167c0,2.865,0.349,5.217,4.224,5.217
	C107.613,135.363,108.102,132.767,108.102,130.178"/>
<path fill="#FFFFFF" d="M112.225,129.91c0-2.055,0.33-2.477,0.961-2.477c0.603,0,0.912,0.422,0.912,2.477
	c0,2.072-0.31,2.473-0.912,2.473C112.555,132.383,112.225,131.982,112.225,129.91 M114.201,126.6h-0.021
	c-0.371-1.172-1.285-1.619-2.195-1.619c-1.926,0-3.065,1.166-3.065,4.98c0,4.104,1.573,4.868,2.899,4.868
	c0.922,0,1.822-0.341,2.238-1.485h0.041v1.898c0,1.09-0.507,1.215-1.006,1.215c-0.508,0-0.818-0.268-0.818-0.764h-2.98
	c0.052,2.25,1.727,2.775,3.852,2.775c2.328,0,4.143-0.815,4.143-3.517v-9.713h-3.086V126.6z"/>
<path fill="#FFFFFF" d="M118.594,125.238h3.199v1.559h0.029c0.373-1.188,1.254-1.816,2.228-1.816h0.528v3.072
	c-0.29-0.051-0.557-0.07-0.816-0.07c-1.182,0-1.854,0.453-1.854,1.74v5.381h-3.313V125.238z"/>
<path fill="#FFFFFF" d="M128.734,133.16c-0.5,0-0.82-0.414-0.82-1.074s0.176-1.053,0.693-1.299c0.477-0.203,0.944-0.188,1.131-0.453
	h0.019v1.192C129.757,132.611,129.476,133.16,128.734,133.16 M133.154,135.104c-0.27-0.5-0.312-1.201-0.312-2.12v-4.856
	c0-2.545-1.606-3.146-3.933-3.146c-1.504,0-3.793,0.484-3.793,3.289h2.857c0.021-1.01,0.323-1.277,0.956-1.277
	c0.558,0,0.826,0.288,0.826,0.887c0,0.596-0.25,0.916-0.96,1.072l-1.309,0.32c-2.113,0.492-2.765,1.341-2.765,3.176
	c0,1.701,0.776,2.916,2.757,2.916c0.993,0,1.894-0.492,2.258-1.369h0.019c0.063,0.4,0.104,0.771,0.21,1.109H133.154z"/>
<path fill="#FFFFFF" d="M139.162,128.6c0-0.826-0.217-1.164-0.809-1.164c-0.58,0-0.808,0.338-0.808,1.164v6.504h-3.315v-9.865h3.2
	v1.207h0.052c0.414-0.98,1.266-1.465,2.394-1.465c1.354,0,2.019,0.504,2.432,1.514c0.521-1.111,1.493-1.514,2.509-1.514
	c1.45,0,2.59,0.568,2.59,2.688v7.435h-3.316V128.6c0-0.826-0.219-1.164-0.805-1.164c-0.592,0-0.81,0.338-0.81,1.164v6.504h-3.313
	V128.6z"/>
<path fill="#FFFFFF" d="M151.156,132.043c0,0.383,0.072,0.744,0.248,0.971c0.154,0.206,0.392,0.35,0.691,0.35
	c0.51,0,0.943-0.32,0.943-0.844c0-1.752-4.785-0.713-4.785-4.453c0-1.734,1.283-3.086,3.955-3.086c2.466,0,3.721,1.043,3.721,3.106
	h-2.869c0-0.835-0.332-1.095-0.881-1.095c-0.486,0-0.839,0.289-0.839,0.765c0,1.628,4.784,0.534,4.784,4.308
	c0,1.908-1.493,3.299-3.975,3.299c-2.776,0-3.896-1.164-3.896-3.32H151.156z"/>
</svg>
